<svg xmlns="http://www.w3.org/2000/svg" width="18" height="18" viewBox="0 0 18 18">
  <path id="floppy-disk" d="M17.121,2.263,15.737.879A3,3,0,0,0,13.616,0H2.063A2.062,2.062,0,0,0,0,2.063V15.937A2.062,2.062,0,0,0,2.063,18H15.938A2.062,2.062,0,0,0,18,15.937V4.385a3,3,0,0,0-.879-2.121ZM3,4.687V2.812a.563.563,0,0,1,.563-.562h7.875A.563.563,0,0,1,12,2.812V4.687a.563.563,0,0,1-.562.563H3.563A.563.563,0,0,1,3,4.687ZM9,15a3.375,3.375,0,1,1,3.375-3.375A3.375,3.375,0,0,1,9,15Zm0,0" transform="translate(0)"/>
</svg>
