<svg id="Page-1" xmlns="http://www.w3.org/2000/svg" width="24.167" height="20" viewBox="0 0 24.167 20">
  <g id="_096---Whiteboard-Checklist" data-name="096---Whiteboard-Checklist">
    <rect id="Rectangle" width="24.167" height="20" rx="3"/>
    <path id="Path" d="M18.583,20.667H24a.836.836,0,0,0,.833-.833v-15A.836.836,0,0,0,24,4H4.833A.836.836,0,0,0,4,4.833v15a.836.836,0,0,0,.833.833Z" transform="translate(-2.333 -2.333)" fill="#ecf0f1"/>
    <path id="Path-2" data-name="Path" d="M19.833,41H26.5a.833.833,0,0,1,.833.833v2.083H19V41.833A.833.833,0,0,1,19.833,41Z" transform="translate(-11.083 -23.917)"/>
    <path id="Path-3" data-name="Path" d="M8.833,12.833H8.417a.417.417,0,1,1,0-.833h.417a.417.417,0,1,1,0,.833Z" transform="translate(-4.667 -7)"/>
    <path id="Path-4" data-name="Path" d="M23,12.833H13.417a.417.417,0,0,1,0-.833H23a.417.417,0,0,1,0,.833Z" transform="translate(-7.583 -7)"/>
    <path id="Path-5" data-name="Path" d="M42.257,11.924a.417.417,0,0,1-.295-.122l-.833-.833a.417.417,0,0,1,.589-.589l.539.539,1.789-1.789a.417.417,0,0,1,.589.589L42.552,11.8A.417.417,0,0,1,42.257,11.924Z" transform="translate(-23.924 -5.257)"/>
    <path id="Path-6" data-name="Path" d="M8.833,22.833H8.417a.417.417,0,0,1,0-.833h.417a.417.417,0,0,1,0,.833Z" transform="translate(-4.667 -12.833)"/>
    <path id="Path-7" data-name="Path" d="M23,22.833H13.417a.417.417,0,0,1,0-.833H23a.417.417,0,0,1,0,.833Z" transform="translate(-7.583 -12.833)"/>
    <path id="Path-8" data-name="Path" d="M42.257,21.924a.417.417,0,0,1-.295-.122l-.833-.833a.417.417,0,0,1,.589-.589l.539.539,1.789-1.789a.417.417,0,0,1,.589.589L42.552,21.8A.417.417,0,0,1,42.257,21.924Z" transform="translate(-23.924 -11.091)"/>
    <path id="Path-9" data-name="Path" d="M8.833,32.833H8.417a.417.417,0,1,1,0-.833h.417a.417.417,0,1,1,0,.833Z" transform="translate(-4.667 -18.667)"/>
    <path id="Path-10" data-name="Path" d="M23,32.833H13.417a.417.417,0,1,1,0-.833H23a.417.417,0,1,1,0,.833Z" transform="translate(-7.583 -18.667)"/>
    <path id="Path-11" data-name="Path" d="M42.257,31.924a.417.417,0,0,1-.295-.122l-.833-.833a.417.417,0,0,1,.589-.589l.539.539,1.789-1.789a.417.417,0,0,1,.589.589L42.552,31.8A.417.417,0,0,1,42.257,31.924Z" transform="translate(-23.924 -16.924)"/>
  </g>
</svg>
