{
  "images" : [
    {
      "filename" : "Group 1518.png",
      "idiom" : "iphone",
      "scale" : "1x"
    },
    {
      "filename" : "Group 1518@2x.png",
      "idiom" : "iphone",
      "scale" : "2x"
    },
    {
      "filename" : "Group 1518@3x.png",
      "idiom" : "iphone",
      "scale" : "3x"
    },
    {
      "filename" : "line1~ipad.png",
      "idiom" : "ipad",
      "scale" : "1x"
    },
    {
      "filename" : "line1~ipad@2x.png",
      "idiom" : "ipad",
      "scale" : "2x"
    }
  ],
  "info" : {
    "author" : "xcode",
    "version" : 1
  }
}
