<svg id="idea" xmlns="http://www.w3.org/2000/svg" width="22" height="22" viewBox="0 0 22 22">
  <g id="Group_1368" data-name="Group 1368" transform="translate(8.25 17.875)">
    <path id="Path_57020" data-name="Path 57020" d="M13.813,20.875H9.688a.688.688,0,1,1,0-1.375h4.125a.688.688,0,0,1,0,1.375Z" transform="translate(-9 -19.5)"/>
  </g>
  <g id="Group_1369" data-name="Group 1369" transform="translate(10.313)">
    <path id="Path_57021" data-name="Path 57021" d="M11.938,3.169a.688.688,0,0,1-.687-.688V.688a.687.687,0,1,1,1.375,0V2.481A.688.688,0,0,1,11.938,3.169Z" transform="translate(-11.25)"/>
  </g>
  <g id="Group_1370" data-name="Group 1370" transform="translate(16.336 3.02)">
    <path id="Path_57022" data-name="Path 57022" d="M18.509,5.939a.688.688,0,0,1-.486-1.174L19.291,3.5a.688.688,0,0,1,.973.973L19,5.737A.69.69,0,0,1,18.509,5.939Z" transform="translate(-17.821 -3.294)"/>
  </g>
  <g id="Group_1371" data-name="Group 1371" transform="translate(18.831 10.313)">
    <path id="Path_57023" data-name="Path 57023" d="M23.024,12.625H21.23a.687.687,0,1,1,0-1.375h1.794a.687.687,0,1,1,0,1.375Z" transform="translate(-20.543 -11.25)"/>
  </g>
  <g id="Group_1372" data-name="Group 1372" transform="translate(16.336 16.335)">
    <path id="Path_57024" data-name="Path 57024" d="M19.777,20.465a.682.682,0,0,1-.486-.2l-1.269-1.269A.688.688,0,0,1,19,18.022l1.269,1.269a.688.688,0,0,1-.487,1.174Z" transform="translate(-17.821 -17.82)"/>
  </g>
  <g id="Group_1373" data-name="Group 1373" transform="translate(3.021 16.335)">
    <path id="Path_57025" data-name="Path 57025" d="M3.983,20.465A.688.688,0,0,1,3.5,19.29l1.269-1.269a.688.688,0,0,1,.973.973L4.469,20.263A.686.686,0,0,1,3.983,20.465Z" transform="translate(-3.295 -17.82)"/>
  </g>
  <g id="Group_1374" data-name="Group 1374" transform="translate(0 10.313)">
    <path id="Path_57026" data-name="Path 57026" d="M2.481,12.625H.688a.687.687,0,1,1,0-1.375H2.481a.687.687,0,1,1,0,1.375Z" transform="translate(0 -11.25)"/>
  </g>
  <g id="Group_1375" data-name="Group 1375" transform="translate(3.021 3.02)">
    <path id="Path_57027" data-name="Path 57027" d="M5.251,5.939a.682.682,0,0,1-.486-.2L3.5,4.468A.688.688,0,0,1,4.469,3.5L5.738,4.764a.688.688,0,0,1-.487,1.174Z" transform="translate(-3.295 -3.294)"/>
  </g>
  <g id="Group_1376" data-name="Group 1376" transform="translate(10.542 6.875)">
    <path id="Path_57028" data-name="Path 57028" d="M15.4,12.083a.688.688,0,0,1-.687-.687,2.523,2.523,0,0,0-2.521-2.521.687.687,0,1,1,0-1.375,3.9,3.9,0,0,1,3.9,3.9A.688.688,0,0,1,15.4,12.083Z" transform="translate(-11.5 -7.5)"/>
  </g>
  <g id="Group_1377" data-name="Group 1377" transform="translate(4.585 4.585)">
    <path id="Path_57029" data-name="Path 57029" d="M12.563,22.417H10.271a1.671,1.671,0,0,1-1.6-1.874V18.926a2.972,2.972,0,0,0-1.108-2.388,6.417,6.417,0,1,1,7.823-.082,2.987,2.987,0,0,0-1.215,2.318v2.038a1.606,1.606,0,0,1-1.6,1.6ZM11.4,6.377a5.325,5.325,0,0,0-1.083.113,5.039,5.039,0,0,0-1.936,8.949,4.353,4.353,0,0,1,1.656,3.487v1.617c0,.083.011.5.229.5h2.292a.229.229,0,0,0,.229-.229V18.775a4.352,4.352,0,0,1,1.74-3.4,5.036,5.036,0,0,0-3.127-9Z" transform="translate(-5.001 -5.001)"/>
  </g>
</svg>
