{
  "images" : [
    {
      "filename" : "checked.svg",
      "idiom" : "iphone"
    },
    {
      "filename" : "checked~ipad@2x.png",
      "idiom" : "ipad"
    }
  ],
  "info" : {
    "author" : "xcode",
    "version" : 1
  }
}
