{
  "images" : [
    {
      "filename" : "Mask Group 54.png",
      "idiom" : "iphone",
      "scale" : "1x"
    },
    {
      "filename" : "Mask Group 54@2x.png",
      "idiom" : "iphone",
      "scale" : "2x"
    },
    {
      "filename" : "Mask Group 54@3x.png",
      "idiom" : "iphone",
      "scale" : "3x"
    },
    {
      "filename" : "pain5~ipad.png",
      "idiom" : "ipad",
      "scale" : "1x"
    },
    {
      "filename" : "pain5~ipad@2x.png",
      "idiom" : "ipad",
      "scale" : "2x"
    }
  ],
  "info" : {
    "author" : "xcode",
    "version" : 1
  }
}
