<svg xmlns="http://www.w3.org/2000/svg" width="23.966" height="22" viewBox="0 0 23.966 22">
  <g id="yes-no" transform="translate(0 -21)">
    <path id="Path_57041" data-name="Path 57041" d="M53.083,93.609l1.158,1.158a.7.7,0,0,0,.993,0l2.317-2.317a.7.7,0,0,0-.993-.993l-1.82,1.82-.662-.662a.7.7,0,0,0-.993.993Z" transform="translate(-50.403 -66.963)"/>
    <path id="Path_57042" data-name="Path 57042" d="M60.206,340.007a.7.7,0,0,0,.993,0l.908-.908.908.908a.7.7,0,0,0,.993-.993l-.908-.908.908-.908a.7.7,0,0,0-.993-.993l-.908.908-.908-.908a.7.7,0,0,0-.993.993l.908.908-.908.908A.7.7,0,0,0,60.206,340.007Z" transform="translate(-57.192 -300.255)"/>
    <path id="Path_57043" data-name="Path 57043" d="M21.391,21H2.574A2.577,2.577,0,0,0,0,23.574v5.149A2.577,2.577,0,0,0,2.574,31.3H21.391a2.577,2.577,0,0,0,2.574-2.574V23.574A2.577,2.577,0,0,0,21.391,21ZM8.426,29.894H2.574a1.172,1.172,0,0,1-1.17-1.17V23.574a1.172,1.172,0,0,1,1.17-1.17H8.426Zm14.136-1.17a1.172,1.172,0,0,1-1.17,1.17H9.83V22.4H21.391a1.172,1.172,0,0,1,1.17,1.17Z"/>
    <path id="Path_57044" data-name="Path 57044" d="M324.337,81.936a.468.468,0,0,0,0-.936h-1.578a.468.468,0,0,0-.468.468v3.745a.468.468,0,0,0,.468.468h1.578a.468.468,0,0,0,0-.936h-1.11v-.936h.993a.468.468,0,0,0,0-.936h-.993v-.936Z" transform="translate(-307.205 -57.191)"/>
    <path id="Path_57045" data-name="Path 57045" d="M391.309,82.932c-.46-.17-.888-.354-1.02-.412a.26.26,0,0,1-.092-.244.376.376,0,0,1,.3-.3,1.247,1.247,0,0,1,1.03.238.468.468,0,0,0,.6-.719,2.183,2.183,0,0,0-1.9-.416,1.317,1.317,0,0,0-.955,1.063,1.19,1.19,0,0,0,.531,1.178.464.464,0,0,0,.065.035c.022.01.537.239,1.118.453.164.061.541.231.491.51a.632.632,0,0,1-.654.426,1.3,1.3,0,0,1-.958-.4.468.468,0,1,0-.694.629,2.253,2.253,0,0,0,1.652.709,1.544,1.544,0,0,0,1.576-1.2A1.41,1.41,0,0,0,391.309,82.932Z" transform="translate(-370.838 -57.193)"/>
    <path id="Path_57046" data-name="Path 57046" d="M234.1,81.084a.468.468,0,0,0-.648.137l-.795,1.221-.8-1.231a.468.468,0,0,0-.784.512l1.12,1.715,0,1.773a.468.468,0,0,0,.467.469h0a.468.468,0,0,0,.468-.467l0-1.775,1.111-1.706A.468.468,0,0,0,234.1,81.084Z" transform="translate(-220.186 -57.19)"/>
    <path id="Path_57047" data-name="Path 57047" d="M21.391,271H2.574A2.577,2.577,0,0,0,0,273.574v5.149A2.577,2.577,0,0,0,2.574,281.3H21.391a2.577,2.577,0,0,0,2.574-2.574v-5.149A2.577,2.577,0,0,0,21.391,271ZM8.426,279.894H2.574a1.172,1.172,0,0,1-1.17-1.17v-5.149a1.172,1.172,0,0,1,1.17-1.17H8.426Zm14.136-1.17a1.172,1.172,0,0,1-1.17,1.17H9.83V272.4H21.391a1.172,1.172,0,0,1,1.17,1.17Z" transform="translate(0 -238.298)"/>
    <path id="Path_57048" data-name="Path 57048" d="M348.34,331a2.34,2.34,0,1,0,2.34,2.34A2.343,2.343,0,0,0,348.34,331Zm0,3.745a1.4,1.4,0,1,1,1.4-1.4A1.406,1.406,0,0,1,348.34,334.745Z" transform="translate(-329.804 -295.489)"/>
    <path id="Path_57049" data-name="Path 57049" d="M254.054,331a.468.468,0,0,0-.464.473l.022,2.282-1.758-2.546a.468.468,0,0,0-.853.266v3.738a.468.468,0,0,0,.936,0v-2.236l1.674,2.424a.518.518,0,0,0,.584.215.537.537,0,0,0,.365-.534l-.035-3.618A.468.468,0,0,0,254.054,331Z" transform="translate(-239.252 -295.489)"/>
  </g>
</svg>
