{
  "images" : [
    {
      "idiom" : "universal"
    },
    {
      "filename" : "Group 11 (1).svg",
      "idiom" : "iphone"
    },
    {
      "filename" : "next@2x.png",
      "idiom" : "ipad"
    }
  ],
  "info" : {
    "author" : "xcode",
    "version" : 1
  }
}
